[
  {
    "id": 1,
    "hero": { "title": "test-en", "button_text": "test-en" },
    "ability": {
      "abilities": [{ "title": "test", "icon_name": "smartphone_plus" }],
      "image": { "avif": "test", "webp": "test", "svg": "test", "fallback": "test", "alt": "test" },
      "title": "test"
    },
    "video": {
      "image": { "avif": "test", "webp": "test", "svg": "test", "fallback": "test", "alt": "test" },
      "title": "test",
      "url": "test"
    },
    "counters": [{ "number": 5, "title": "test" }],
    "faq": { "items": [{ "title": "test", "text": "test" }], "title": "test" },
    "how_to": {
      "title": "test",
      "item": [
        {
          "title": "test",
          "text": "test",
          "image": { "avif": "test", "webp": "test", "svg": "test", "fallback": "test", "alt": "test" },
          "right": true
        }
      ]
    },
    "app": {
      "image": { "avif": "test", "webp": "test", "fallback": "test", "svg": "test", "alt": "test" },
      "title": "test",
      "columns": [{ "text": "test" }]
    },
    "register": { "title": "test", "description": "test" },
    "news": { "title": "test" },
    "partners": { "title": "test" },
    "title": "test",
    "slug": "test",
    "locale": "en",
    "localizations": [
      {
        "id": 2,
        "locale": "en"
      }
    ]
  },
  {
    "id": 2,
    "hero": { "title": "test-uk", "button_text": "test-uk" },
    "ability": {
      "abilities": [{ "title": "test", "icon_name": "smartphone_plus" }],
      "image": { "avif": "test", "webp": "test", "svg": "test", "fallback": "test", "alt": "test" },
      "title": "test"
    },
    "video": {
      "image": { "avif": "test", "webp": "test", "svg": "test", "fallback": "test", "alt": "test" },
      "title": "test",
      "url": "test"
    },
    "counters": [{ "number": 5, "title": "test" }],
    "faq": { "items": [{ "title": "test", "text": "test" }], "title": "test" },
    "how_to": {
      "title": "test",
      "item": [
        {
          "title": "test",
          "text": "test",
          "image": { "avif": "test", "webp": "test", "svg": "test", "fallback": "test", "alt": "test" },
          "right": true
        }
      ]
    },
    "app": {
      "image": { "avif": "test", "webp": "test", "fallback": "test", "svg": "test", "alt": "test" },
      "title": "test",
      "columns": [{ "text": "test" }]
    },
    "register": { "title": "test", "description": "test" },
    "news": { "title": "test" },
    "partners": { "title": "test" },
    "title": "test",
    "slug": "test",
    "locale": "uk",
    "localizations": [
      {
        "id": 1,
        "locale": "uk"
      }
    ]
  }
]
